TD3 - Ajuster un modèle hiérarchique spatial avec INLA – Statistique Spatiale
…
les coordonées du village (x, y)

le résultat du test (pos),

l’âge en jours, *l’utilisation d’une moustiquaire netuse,

l’administration éventuel d’un traitement sur la moustiquaire treated,

une mesure par satellite de la végétation proche green,

la présence ou non d’un centre de santé dans le village.

Calculer la prévalence (proportion de cas positif) dans chaque village

# A tibble: 65 × 4
   village_index total   pos  prev
   <fct>         <int> <dbl> <dbl>
 1 1                33    17 0.515
 2 2                63    19 0.302
 3 3                17     7 0.412
 4 4                24     8 0.333
 5 5                26    10 0.385
 6 6                18     7 0.389
 7 7                38    24 0.632
 8 8                56     7 0.125
 9 9                57     6 0.105
10 10               26     8 0.308
# ℹ 55 more rows
…
